<?xml version="1.0" encoding="UTF-8" standalone="no"?>
<svg
   xmlns:dc="http://purl.org/dc/elements/1.1/"
   xmlns:cc="http://creativecommons.org/ns#"
   xmlns:rdf="http://www.w3.org/1999/02/22-rdf-syntax-ns#"
   xmlns:svg="http://www.w3.org/2000/svg"
   xmlns="http://www.w3.org/2000/svg"
   xmlns:sodipodi="http://sodipodi.sourceforge.net/DTD/sodipodi-0.dtd"
   xmlns:inkscape="http://www.inkscape.org/namespaces/inkscape"
   sodipodi:docname="logo-siah-v.svg"
   inkscape:version="1.0 (4035a4fb49, 2020-05-01)"
   id="svg1619"
   version="1.1"
   viewBox="0 0 207.10545 272.90433"
   height="272.90433mm"
   width="207.10545mm">
  <defs
     id="defs1613" />
  <sodipodi:namedview
     inkscape:window-maximized="1"
     inkscape:window-y="-8"
     inkscape:window-x="-8"
     inkscape:window-height="1377"
     inkscape:window-width="2560"
     fit-margin-bottom="0"
     fit-margin-right="0"
     fit-margin-left="0"
     fit-margin-top="0"
     showgrid="false"
     inkscape:document-rotation="0"
     inkscape:current-layer="layer1"
     inkscape:document-units="mm"
     inkscape:cy="924.29613"
     inkscape:cx="942.80897"
     inkscape:zoom="0.35"
     inkscape:pageshadow="2"
     inkscape:pageopacity="0.0"
     borderopacity="1.0"
     bordercolor="#666666"
     pagecolor="#ffffff"
     id="base" />
  <metadata
     id="metadata1616">
    <rdf:RDF>
      <cc:Work
         rdf:about="">
        <dc:format>image/svg+xml</dc:format>
        <dc:type
           rdf:resource="http://purl.org/dc/dcmitype/StillImage" />
        <dc:title></dc:title>
      </cc:Work>
    </rdf:RDF>
  </metadata>
  <g
     transform="translate(429.36821,357.94621)"
     id="layer1"
     inkscape:groupmode="layer"
     inkscape:label="Capa 1">
    <path
       style="fill:#000000;stroke-width:0.264583"
       d="m -327.592,-152.86064 c -0.52443,-0.42424 -0.64584,-0.81592 -0.75691,-2.44179 l -0.13229,-1.9365 -3.28663,-2.32071 c -1.80764,-1.27639 -3.38351,-2.32071 -3.50194,-2.32071 -0.11843,0 -0.83609,0.82953 -1.59482,1.8434 -0.75871,1.01386 -1.39408,1.81753 -1.41192,1.78593 -0.0178,-0.0316 0.0541,-1.24808 0.15997,-2.70328 0.16571,-2.27863 0.13164,-2.7059 -0.2455,-3.07862 -0.24085,-0.23803 -6.09338,-4.35537 -13.00562,-9.14965 -6.91224,-4.79428 -24.29536,-16.85696 -38.62917,-26.80594 -14.3338,-9.94899 -29.03802,-20.1534 -32.67604,-22.67649 -3.63802,-2.52307 -6.65083,-4.69166 -6.69514,-4.81908 -0.0443,-0.12742 7.36769,-11.36456 16.47109,-24.97143 l 16.55165,-24.73974 3.43666,-0.81699 c 1.89017,-0.44935 5.05,-1.09915 7.02185,-1.44399 1.97186,-0.34485 3.61965,-0.67158 3.66177,-0.72607 0.0421,-0.0545 2.01782,-3.43282 4.39044,-7.50741 2.37262,-4.07458 4.35578,-7.45652 4.40701,-7.51541 0.23309,-0.26797 14.98519,2.05119 21.7953,3.4264 8.29843,1.67576 16.51924,4.04671 20.99289,6.05453 0.99583,0.44693 1.91856,0.81261 2.05052,0.81261 0.26644,0 0.27147,-28.44013 0.007,-38.15325 l -0.16371,-6.00637 -1.97903,1.44231 c -1.99508,1.454 -2.81673,1.74365 -3.07048,1.0824 -0.14924,-0.38892 6.91838,-25.02643 7.28509,-25.39563 0.12197,-0.12279 0.44276,-0.18077 0.71288,-0.12886 0.39938,0.0768 1.21995,2.41686 4.39246,12.52638 2.14573,6.83759 3.87077,12.60921 3.83342,12.82582 -0.13687,0.79374 -1.08579,0.56119 -2.93885,-0.72022 -1.03702,-0.71712 -2.03432,-1.39055 -2.21622,-1.49654 -0.26348,-0.15351 -0.33073,4.3251 -0.33073,22.02814 v 22.22082 l 2.34075,-1.01523 c 8.08629,-3.50722 22.99695,-6.96613 40.06225,-9.29348 1.27523,-0.17392 2.36395,-0.26818 2.41936,-0.20948 0.0554,0.0587 1.97344,3.32142 4.26228,7.25048 2.28885,3.92906 4.3553,7.33364 4.5921,7.56574 0.26676,0.26144 1.7391,0.64136 3.87014,0.99862 1.89177,0.31715 4.97889,0.9607 6.86027,1.4301 l 3.42068,0.85346 16.47705,24.60623 c 9.06239,13.53344 16.48254,24.66732 16.48922,24.74194 0.007,0.0746 -0.22782,0.25323 -0.52112,0.39689 -0.29331,0.14364 -20.82754,14.54867 -45.63162,32.01117 -44.79877,31.5391 -45.09839,31.75599 -45.10734,32.65091 -0.009,0.88011 -0.0211,0.88999 -0.5314,0.42814 -0.61927,-0.56042 -0.22295,-0.77397 -5.49689,2.96188 l -3.50573,2.48332 v 1.58584 c 0,1.33095 -0.10438,1.69022 -0.64943,2.23527 -0.84002,0.84003 -2.92927,0.91754 -3.88532,0.14414 z m 2.89302,-3.14852 0.0781,-1.93403 -1.13639,0.0819 -1.13638,0.082 -0.08,1.54367 c -0.0949,1.83052 0.2269,2.35271 1.3804,2.24015 l 0.81628,-0.0797 z m 9.23864,-7.36294 c 0.0429,-0.12857 -1.47032,-1.77857 -3.36262,-3.66667 l -3.44054,-3.4329 -0.004,5.55243 c -0.002,3.05384 -0.0781,5.83082 -0.16926,6.17107 -0.13416,0.50109 0.50548,0.14277 3.36624,-1.88576 1.94252,-1.37742 3.56693,-2.6096 3.60978,-2.73817 z m -13.7398,-4.06917 -0.0748,-2.9151 -2.71198,3.68607 c -1.49159,2.02733 -2.70748,3.78561 -2.70199,3.90728 0.006,0.12167 1.22589,1.06702 2.71198,2.10078 l 2.70199,1.87957 0.0748,-2.87175 c 0.0411,-1.57947 0.0411,-4.18355 0,-5.78685 z m 5.08456,7.81343 c 0,-0.18222 -1.61944,-0.83645 -2.60788,-1.05354 -0.76481,-0.16799 -0.8317,-0.12778 -0.8317,0.4998 0,0.66359 0.0476,0.68248 1.71979,0.68248 0.94588,0 1.71979,-0.0579 1.71979,-0.12874 z m 0,-1.98792 v -1.05834 h -1.71979 c -1.46297,0 -1.71922,0.0692 -1.71594,0.46302 0.003,0.33083 0.47488,0.62172 1.65364,1.01887 0.90739,0.30571 1.67957,0.5736 1.71595,0.59531 0.0364,0.0217 0.0661,-0.43678 0.0661,-1.01886 z m 0,-2.24896 c 0,-0.63772 -0.0617,-0.66146 -1.71979,-0.66146 -1.52939,0 -1.71979,0.0572 -1.71979,0.51654 0,0.44722 0.22194,0.52915 1.65364,0.61048 0.90951,0.0517 1.68342,0.11688 1.7198,0.14492 0.0364,0.028 0.0661,-0.24668 0.0661,-0.61048 z m -4.76568,-15.41198 c 0.002,-2.65576 -0.0338,-4.82865 -0.079,-4.82865 -0.0452,0 -0.90409,1.20351 -1.90869,2.67447 -1.00459,1.47096 -1.86693,2.55325 -1.91632,2.4051 -0.0494,-0.14815 0.73174,-1.73862 1.73583,-3.53436 2.28458,-4.08584 2.47944,-4.45562 2.34789,-4.45562 -0.0587,0 -0.86179,1.14523 -1.78477,2.54495 -0.92298,1.39973 -1.72161,2.41455 -1.77474,2.25515 -0.0531,-0.1594 0.74582,-1.82678 1.77546,-3.7053 l 1.87207,-3.4155 -0.002,-3.40371 -0.002,-3.40372 -1.88622,2.91042 c -1.03741,1.60073 -2.17498,3.38667 -2.52792,3.96875 l -0.64172,1.05833 0.74347,-0.79878 c 0.4089,-0.43933 1.32816,-1.45136 2.04278,-2.24896 0.71462,-0.79759 1.12247,-1.15252 0.90633,-0.78872 -0.21615,0.36381 -1.47471,2.62599 -2.79682,5.02709 l -2.40383,4.36562 -0.17926,4.35666 -0.17926,4.35666 1.72814,-1.86656 c 1.82924,-1.97575 3.39506,-3.80495 4.01621,-4.69176 0.68717,-0.98107 0.67472,-0.26572 -0.0298,1.71102 -1.03669,2.90881 -3.69537,7.91673 -5.18313,9.76303 -1.05349,1.30737 -1.29354,1.78914 -1.22805,2.46465 0.0774,0.79855 0.18318,0.69329 2.16169,-2.15125 1.14416,-1.64499 2.13407,-2.93711 2.19979,-2.87139 0.17654,0.17654 -1.66032,3.74157 -2.99068,5.80438 -0.63641,0.9868 -1.15449,1.87977 -1.15129,1.98437 0.003,0.10461 1.60912,-2.25059 3.5687,-5.23377 l 3.56287,-5.42395 0.003,-4.82865 z m -8.75444,12.08466 c 0.02,-0.91901 0.18149,-1.35637 0.67028,-1.81557 0.35415,-0.33271 1.15426,-1.33573 1.77801,-2.22893 l 1.1341,-1.62401 -1.70196,1.50921 c -0.93608,0.83006 -1.72609,1.4849 -1.75557,1.4552 -0.0295,-0.0297 0.3119,-5.11415 0.75864,-11.29879 0.70374,-9.74246 0.87748,-11.32909 1.30048,-11.87578 0.40246,-0.52015 0.48822,-1.11188 0.48822,-3.36834 v -2.73733 l 1.29171,-1.92334 c 1.97425,-2.93964 5.0411,-8.44177 5.2014,-9.33167 0.0786,-0.43656 0.10838,-3.82984 0.0661,-7.54062 l -0.0769,-6.74688 -2.38655,-0.0753 -2.38654,-0.0753 -0.65617,-1.24437 c -0.89269,-1.69292 -4.27532,-5.0009 -6.35719,-6.2169 -8.61772,-5.03351 -22.10634,-5.73873 -43.76354,-2.28808 -1.89865,0.30252 -9.40522,1.66321 -16.68126,3.02376 -14.33501,2.6805 -18.83184,3.41372 -23.97394,3.90896 l -3.33643,0.32133 4.79164,3.33776 c 4.58983,3.19718 38.01963,26.40122 59.4281,41.24978 5.60256,3.88583 13.69881,9.5083 17.99167,12.49437 8.62039,5.99626 8.11656,5.80579 8.17571,3.09077 z m 69.06711,-28.98569 44.30219,-31.18699 -1.96886,-0.20785 c -4.95201,-0.52279 -12.18291,-1.66717 -20.59958,-3.26015 -26.59849,-5.03414 -32.10349,-5.76905 -43.28178,-5.77808 -6.08522,-0.005 -7.88087,0.0812 -10.05417,0.48191 -5.88601,1.08537 -9.99145,2.724 -13.289,5.30417 -1.73657,1.35877 -4.00556,3.98529 -4.64613,5.37823 -0.25376,0.55181 -0.44465,0.59531 -2.61255,0.59531 h -2.33878 v 7.1679 7.1679 l 3.43959,4.77438 3.43958,4.77438 v 1.79685 c 0,1.6015 0.0719,1.85342 0.66146,2.31715 0.66029,0.51939 0.66146,0.52842 0.66146,5.12567 0,2.53294 0.10804,4.71846 0.2401,4.85671 0.13206,0.13824 0.30772,3.70417 0.39037,7.92427 0.0826,4.2201 0.22632,8.1904 0.31928,8.82288 0.16781,1.14169 0.16453,1.14763 -0.45651,0.82671 -0.50814,-0.26259 -0.45797,-0.1469 0.26729,0.6164 0.86512,0.91049 0.88697,0.98659 0.7039,2.45184 -0.15127,1.2107 -0.11827,1.4848 0.1655,1.37479 0.19494,-0.0756 20.29043,-14.17154 44.65664,-31.32438 z m -55.54699,30.61223 c 0,-0.23139 -2.63575,-1.34193 -3.18492,-1.34193 -0.14007,0 -0.25466,0.35719 -0.25466,0.79375 v 0.79375 h 1.71979 c 0.94588,0 1.71979,-0.11051 1.71979,-0.24557 z m 9.26042,-0.74856 c 0,-0.50751 -0.45234,-1.24821 -1.48622,-2.43368 -2.46461,-2.82596 -4.29133,-5.43492 -4.00551,-5.72074 0.0591,-0.0591 1.14028,0.59742 2.40269,1.45886 l 2.29529,1.56625 v -1.05775 c 0,-0.91938 -0.2934,-1.4426 -2.24293,-3.99986 -1.23362,-1.61816 -2.18008,-3.00497 -2.10325,-3.0818 0.0768,-0.0768 1.08791,0.86847 2.24685,2.10065 l 2.10717,2.24033 -0.16925,-1.32292 c -0.12159,-0.9503 -0.59848,-2.0337 -1.69314,-3.84649 -1.48867,-2.46524 -4.33672,-7.92747 -4.13345,-7.92747 0.0562,0 1.33724,1.63711 2.84668,3.63802 l 2.74444,3.63802 0.0751,-2.68646 0.0751,-2.68647 -1.1672,-1.67916 c -1.38432,-1.99149 -2.41848,-3.99552 -2.67563,-5.18489 -0.10225,-0.47294 -0.13982,-0.85989 -0.0835,-0.85989 0.0563,0 0.80994,0.96377 1.67467,2.1417 l 1.57225,2.14171 0.0812,-0.93514 c 0.0725,-0.83481 -0.25399,-1.38188 -3.04271,-5.09894 l -3.12387,-4.16379 -0.0765,1.98849 -0.0765,1.9885 2.36582,3.99313 c 1.30121,2.19622 2.29835,4.06061 2.21587,4.14309 -0.0825,0.0825 -1.03831,-1.18921 -2.12408,-2.82596 -1.08577,-1.63675 -2.09577,-3.09498 -2.24445,-3.2405 -0.67193,-0.65766 0.27561,1.03371 2.99857,5.35245 1.60616,2.54745 2.84601,4.70602 2.75521,4.79681 -0.0908,0.0908 -0.26798,-0.0125 -0.39374,-0.22959 -0.12576,-0.21707 -1.42652,-2.05121 -2.89057,-4.07588 l -2.66191,-3.6812 v 2.73315 2.73316 l 1.30529,2.44293 c 0.71791,1.34361 1.2331,2.51512 1.14488,2.60335 -0.0882,0.0882 -0.64585,-0.52494 -1.23915,-1.36259 l -1.07873,-1.52301 -0.0806,1.40729 c -0.0656,1.14477 0.054,1.63833 0.64086,2.64584 0.85717,1.4715 2.54948,3.84276 3.51252,4.92172 l 0.68973,0.77275 -0.92604,-0.51858 c -0.52598,-0.29455 -1.55472,-1.40238 -2.38125,-2.56433 l -1.45521,-2.04575 -0.0754,2.81002 -0.0754,2.81001 2.7212,2.83423 c 1.49666,1.55883 3.19745,3.44724 3.77953,4.19647 0.58208,0.74923 1.14763,1.36701 1.25677,1.37284 0.10914,0.006 0.19844,-0.31768 0.19844,-0.71893 z m -9.26042,-1.10471 c 0,-0.84758 -0.14046,-0.92495 -2.18281,-1.20242 -1.12659,-0.15306 -1.25677,-0.11751 -1.25677,0.34322 0,0.38233 0.288,0.589 1.12448,0.8069 0.61846,0.16111 1.30307,0.41155 1.52135,0.55653 0.63551,0.42208 0.79375,0.32156 0.79375,-0.50423 z m 0,-2.39908 c 0,-0.43656 -0.0643,-0.79375 -0.14283,-0.79375 -0.0786,0 -0.64411,0.26482 -1.25677,0.58849 l -1.11394,0.58848 1.05833,0.16772 c 0.58209,0.0922 1.14763,0.18462 1.25677,0.20527 0.10914,0.0207 0.19844,-0.31964 0.19844,-0.75621 z m -1.34496,-1.23657 c 0.0606,-0.0475 -0.38586,-0.0863 -0.99219,-0.0863 -1.00883,0 -1.10243,0.058 -1.10243,0.68304 v 0.68303 l 0.99219,-0.59669 c 0.5457,-0.32818 1.04179,-0.63555 1.10243,-0.68304 z m 0.81579,-74.30197 v -72.89269 h -1.19062 -1.19063 v 72.7163 c 0,39.99398 0.0794,72.7957 0.17639,72.89271 0.097,0.097 0.6328,0.17639 1.19063,0.17639 h 1.01423 z m -6.64187,51.476 2.67312,-3.82192 -0.006,-4.51245 -0.006,-4.51246 -1.39358,2.64583 c -0.76646,1.45521 -1.895,3.38344 -2.50786,4.28496 -0.89151,1.31141 -1.11243,1.86686 -1.10499,2.77813 l 0.009,1.139 2.13172,-2.24896 c 1.44105,-1.5203 1.96044,-1.94892 1.60308,-1.32292 -0.29076,0.50932 -1.43281,2.47025 -2.5379,4.35762 -1.59131,2.71778 -2.00925,3.65063 -2.00925,4.48469 0,0.63179 0.0949,0.95255 0.23729,0.80175 0.13051,-0.13824 1.4402,-1.97121 2.91042,-4.07327 z m 15.10807,-0.60985 c -2.6e-4,-0.6355 -0.40118,-1.39473 -1.53601,-2.90943 -1.55739,-2.07868 -3.91696,-6.21126 -3.68111,-6.44712 0.0709,-0.0709 0.98645,0.95825 2.03457,2.28696 1.04812,1.32872 1.97647,2.34506 2.063,2.25854 0.0865,-0.0865 -1.08459,-2.00095 -2.60248,-4.25428 l -2.75979,-4.09696 -0.0751,2.9395 c -0.0728,2.85131 -0.0533,2.96838 0.65257,3.90224 1.66911,2.20833 5.67538,7.18044 5.78563,7.18044 0.0656,0 0.11897,-0.38695 0.11871,-0.85989 z m -91.50362,-40.02926 c 23.76203,-5.89919 35.77992,-7.81508 49.50136,-7.89148 3.45605,-0.0192 6.28379,-0.0582 6.28386,-0.0865 2.6e-4,-0.15388 -7.68247,-2.51422 -10.05404,-3.08883 -7.28479,-1.76505 -12.85557,-2.40091 -21.03438,-2.40091 -6.48871,0 -9.67227,0.2479 -15.43715,1.20205 -1.79648,0.29733 -3.32295,0.48397 -3.39218,0.41475 -0.0692,-0.0692 3.82272,-6.87306 8.64875,-15.11965 4.82604,-8.24658 8.71095,-15.05745 8.63315,-15.13526 -0.15599,-0.15598 -4.18412,0.68467 -7.37206,1.53851 l -2.04033,0.54647 -12.75825,20.8097 c -7.01704,11.44533 -12.94023,21.09486 -13.16264,21.44339 l -0.4044,0.63369 1.31235,-0.19616 c 0.72179,-0.10789 5.79597,-1.30928 11.27596,-2.66975 z m 175.93899,2.32614 c -0.13771,-0.25467 -6.02454,-9.86896 -13.08184,-21.36512 l -12.83145,-20.90207 -1.47666,-0.45143 c -2.18849,-0.66904 -7.82998,-1.88819 -7.99123,-1.72694 -0.0769,0.0769 3.80853,6.88725 8.63427,15.13413 4.82574,8.24688 8.71425,15.05414 8.64113,15.12727 -0.0731,0.0731 -1.60278,-0.11033 -3.39926,-0.40767 -5.76488,-0.95415 -8.94843,-1.20205 -15.43715,-1.20205 -8.06955,0 -13.90642,0.66838 -21.03437,2.40866 -2.43654,0.59487 -10.05434,2.92606 -10.05407,3.07672 5e-5,0.0307 2.76826,0.0684 6.15156,0.0836 13.94662,0.0629 25.89968,1.98438 50.60147,8.13417 11.55495,2.87673 11.71913,2.90717 11.2776,2.09068 z m -96.60573,-27.04755 v -22.21889 l -0.65903,-0.43181 c -1.95084,-1.27824 -9.56526,-4.07189 -15.34826,-5.63113 -6.73122,-1.8149 -19.21092,-4.19268 -24.62515,-4.69187 l -1.87098,-0.17251 -1.1886,2.08412 c -1.92608,3.37725 -21.3852,36.8901 -22.24029,38.30265 l -0.78304,1.29352 1.40924,-0.18888 c 0.77508,-0.1039 2.65939,-0.35591 4.18736,-0.56002 21.13228,-2.82302 41.38957,1.64454 58.44791,12.8901 1.25068,0.82451 2.36326,1.50912 2.4724,1.52136 0.10914,0.0122 0.19844,-9.97625 0.19844,-22.19664 z m 13.75833,17.04442 c 15.74865,-8.71939 34.10597,-11.82827 53.67148,-9.08947 2.08863,0.29237 3.88725,0.49597 3.99693,0.45245 0.10968,-0.0435 -5.19752,-9.366 -11.79377,-20.71662 -10.52092,-18.10405 -12.07602,-20.64784 -12.66788,-20.72178 -0.77317,-0.0966 -8.35462,0.99589 -13.62759,1.96371 -9.77766,1.79463 -21.33623,5.19924 -26.52448,7.81285 l -1.52136,0.76638 v 22.33937 22.33937 l 2.84428,-1.80406 c 1.56434,-0.99224 4.09442,-2.49623 5.62239,-3.3422 z m -9.525,-77.37551 c 0,-0.47876 -0.17639,-0.52916 -1.85208,-0.52916 -1.36702,0 -1.85209,0.0924 -1.85209,0.35277 0,0.60188 0.29808,0.70556 2.02848,0.70556 1.4993,0 1.67569,-0.0557 1.67569,-0.52917 z m -0.27224,-1.60195 c -0.39521,-0.25412 -1.80772,-0.67635 -2.77047,-0.82815 -0.37656,-0.0594 -0.55307,0.0847 -0.61208,0.49941 -0.0776,0.54556 0.0324,0.58787 1.7198,0.66145 1.99014,0.0868 2.23802,0.0372 1.66275,-0.33271 z m 0.27224,-1.57305 v -0.79375 h -1.87413 c -2.35437,0 -2.33989,0.4328 0.0355,1.06193 0.93847,0.24855 1.73609,0.46849 1.77247,0.48874 0.0364,0.0203 0.0661,-0.32035 0.0661,-0.75692 z m 0,-1.98437 c 0,-0.31498 -0.38217,-0.39688 -1.85208,-0.39688 -1.70546,0 -2.13486,0.1582 -1.6757,0.61737 0.097,0.097 0.93045,0.17638 1.85209,0.17638 1.31311,0 1.67569,-0.0859 1.67569,-0.39687 z m -0.26458,-1.46026 c -0.21828,-0.14385 -0.98573,-0.44019 -1.70544,-0.65853 -1.37081,-0.41587 -1.93442,-0.23997 -1.64529,0.5135 0.12306,0.32069 0.56576,0.41375 1.95336,0.41061 1.2746,-0.003 1.6793,-0.0798 1.39737,-0.26558 z m -0.043,-2.14379 c -0.19463,-0.12337 -0.91942,-0.22613 -1.61065,-0.22836 -0.69122,-0.002 -1.34309,-0.013 -1.44859,-0.0239 -0.1055,-0.0109 -0.23303,0.10376 -0.28338,0.25483 -0.0504,0.15106 0.24432,0.349 0.65484,0.43986 0.41052,0.0909 1.22265,0.31485 1.80474,0.49778 0.98338,0.30902 1.06465,0.29545 1.14762,-0.19166 0.0491,-0.28834 -0.07,-0.62518 -0.26458,-0.74855 z m -3.66117,-5.71681 c 0.16194,-3.23102 0.34433,-3.51143 2.28395,-3.51143 2.03547,0 2.31184,0.40507 2.47855,3.63272 l 0.13229,2.56127 1.53578,1.166 c 0.84468,0.64131 1.58768,1.11412 1.65111,1.05069 0.0634,-0.0634 -1.22299,-4.41574 -2.8587,-9.67181 -1.63571,-5.25607 -3.04885,-9.47401 -3.1403,-9.3732 -0.1715,0.18903 -5.5226,18.52906 -5.52238,18.92705 6e-5,0.12261 0.74426,-0.30914 1.65376,-0.95944 l 1.65365,-1.18236 z m 3.96875,4.29378 c 0,-0.7875 0.0136,-0.78529 -1.21966,-0.19844 l -0.97303,0.46302 0.76562,0.16713 c 1.31047,0.28608 1.42707,0.2508 1.42707,-0.43171 z m -1.87413,-0.8274 c 0.0606,-0.0542 -0.32632,-0.0986 -0.8599,-0.0986 -0.79785,0 -0.97014,0.0952 -0.97014,0.53596 0,0.51799 0.0288,0.5213 0.8599,0.0986 0.47294,-0.24053 0.90951,-0.48171 0.97014,-0.53596 z m 1.81829,-3.46276 c -0.0731,-2.20593 -0.10796,-2.32337 -0.80405,-2.71198 -0.65419,-0.36521 -0.80103,-0.36521 -1.45521,0 -0.6961,0.38861 -0.73092,0.50605 -0.80405,2.71198 l -0.0765,2.30578 h 1.6081 1.6081 z"
       id="path826"
       inkscape:connector-curvature="0" />
    <path
       style="fill:#000000;stroke:none;stroke-width:0.264583px;stroke-linecap:butt;stroke-linejoin:miter;stroke-opacity:1"
       d="m -325.91418,-357.94614 c -1.02239,0.0118 -1.35392,1.50895 -1.35392,1.50895 0,0 -9.18016,29.89465 -7.98504,31.5712 1.19513,1.67655 4.57698,-0.63459 4.57698,-0.63459 v 41.42693 l 0.80203,0.86868 2.00451,-0.26768 0.28526,-46.28555 c 0,0 -5.0291,1.91901 -5.49682,2.25309 -0.46772,0.33409 3.47421,-12.02717 3.47421,-12.02717 l 3.69279,-9.20047 3.69228,9.20047 c 0,0 3.94244,12.36126 3.47473,12.02717 -0.46772,-0.33408 -5.49734,-2.25309 -5.49734,-2.25309 l 0.28525,46.28555 2.00453,0.26768 0.80202,-0.86868 v -41.42693 c 0,0 3.38185,2.31114 4.57698,0.63459 1.19512,-1.67655 -7.98453,-31.5712 -7.98453,-31.5712 0,0 -0.33153,-1.52076 -1.35392,-1.50895 z m 3.95945,74.74117 h -2.09858 v 48.83318 h 2.66237 v -48.83318 z m -7.9194,0 h -0.52918 v 48.83318 h 2.66237 v -48.83318 z m -97.05042,55.2576 -1.22679,0.58239 87.32955,61.07328 -0.84388,12.11088 0.40101,1.87069 h 1.13585 c 2.96006,0.43536 6.36766,-8.66974 7.55044,-7.75043 0.70076,2.68745 1.44673,5.40915 1.93786,8.15144 0.6482,1.21039 1.64209,2.11589 4.72685,2.11563 3.08475,-2.5e-4 4.07876,-0.90545 4.72684,-2.11563 0.49113,-2.74229 1.23711,-5.46399 1.93787,-8.15144 1.18279,-0.91931 4.59039,8.18579 7.55044,7.75043 h 1.13585 l 0.40101,-1.87069 -0.83974,-12.04732 0.16743,-0.0465 87.35435,-61.09033 -1.22679,-0.58239 -86.40352,60.16273 -0.36638,-5.26117 c -0.6725,-10.98189 -1.77263,-23.75681 -2.36058,-25.70231 -0.58795,-1.94551 -4.86252,-7.80726 -7.4166,-11.62616 v -17.30541 l -2.73937,0.40049 -0.13384,4.41007 1.05368,16.14217 6.33812,7.55044 -1.34049,3.29748 1.43247,4.34753 1.47019,19.44378 -4.00905,-3.00705 1.53685,2.23449 2.60553,4.38061 0.23719,3.26595 -0.10748,0.0749 0.11059,-0.031 0.36121,4.97541 -6.28075,-8.28528 -2.33888,-4.27623 c 0,0 -0.86873,13.22948 -1.06918,13.76402 -0.20043,0.53453 0.0202,6.13141 0.0202,6.13141 l -0.68264,-0.29456 c 0.0654,-0.55712 -0.11679,-0.92035 -0.11679,-0.92035 l -1.00769,0.43511 -1.00769,-0.43511 c 0,0 -0.1822,0.36323 -0.11679,0.92035 l -0.68265,0.29456 c 0,0 0.22058,-5.59688 0.0202,-6.13141 -0.20045,-0.53454 -1.0692,-13.76402 -1.0692,-13.76402 l -2.33887,4.27623 -6.28075,8.28528 0.36535,-5.02864 0.30283,0.0842 -0.29455,-0.20516 0.22789,-3.13572 2.60604,-4.38061 1.53685,-2.23449 -4.00905,3.00705 1.46967,-19.44378 1.43247,-4.34753 -1.34049,-3.29748 6.33812,-7.55044 1.05369,-16.14217 -0.13384,-4.41007 -2.73938,-0.40049 v 17.30541 c -2.55408,3.8189 -6.85226,10.17675 -7.41659,11.62616 -0.56434,1.44941 -1.68809,14.72042 -2.36058,25.70231 l -0.35761,5.13043 z"
       id="path828"
       inkscape:connector-curvature="0" />
    <path
       style="font-style:normal;font-variant:normal;font-weight:bold;font-stretch:normal;font-size:62.8503px;line-height:1.25;font-family:Kinnari;-inkscape-font-specification:'Kinnari Bold';letter-spacing:2.64583px;word-spacing:0px;fill:#000000;fill-opacity:1;stroke:none;stroke-width:1.38795"
       d="m -380.92527,-124.68205 c -2.92396,0 -5.40358,0.94392 -7.43924,2.83154 -2.03567,1.8506 -3.05385,4.21906 -3.05385,7.10601 0,2.10969 0.61091,3.97885 1.83231,5.60738 1.2214,1.59152 2.68329,2.90582 4.38585,3.94216 1.73957,1.03634 3.47935,2.05406 5.21893,3.05339 1.73956,0.96231 3.21968,2.12809 4.44108,3.497542 1.2214,1.33244 1.8323,2.8499 1.8323,4.55246 0,1.55451 -0.55532,2.86833 -1.66569,3.94171 -1.11036,1.07334 -2.498,1.60997 -4.16354,1.60997 -2.62786,0 -4.88562,-0.90654 -6.77324,-2.72013 -1.8506,-1.81361 -3.25737,-4.18251 -4.21969,-7.10648 h -2.49831 l 1.77662,13.32461 h 2.38738 c 0.18506,-1.33241 0.72171,-1.9989 1.61,-1.9989 0.40714,0 1.51734,0.333 3.33093,0.99923 1.85061,0.66622 3.46101,0.99967 4.83046,0.99967 3.81225,0 6.80984,-1.09196 8.99355,-3.27567 2.22073,-2.18372 3.33139,-4.7007 3.33139,-7.55062 v -0.72169 c -0.18506,-3.072 -1.66564,-5.737042 -4.44154,-7.994782 -1.18439,-0.96232 -4.0157,-2.7759 -8.49417,-5.44077 -0.81426,-0.51818 -1.44339,-0.92499 -1.88754,-1.22109 -0.44414,-0.29609 -0.99947,-0.74026 -1.66569,-1.33246 -0.66622,-0.59219 -1.16597,-1.2031 -1.49908,-1.8323 -0.33311,-0.62921 -0.49984,-1.29524 -0.49984,-1.99847 0,-1.48049 0.48153,-2.60936 1.44384,-3.38662 0.96232,-0.81426 2.22058,-1.22153 3.77508,-1.22153 2.29476,0 4.27508,0.88834 5.94062,2.66492 1.66555,1.77658 2.83133,4.07124 3.49754,6.88416 h 2.72016 l -1.33246,-13.21324 h -2.3317 c -0.40713,1.29542 -0.99936,1.94323 -1.77661,1.94323 -0.33311,0 -1.33215,-0.31479 -2.9977,-0.944 -1.66554,-0.66621 -3.20169,-0.99923 -4.60815,-0.99923 z m 19.82534,0.55508 v 2.49831 c 3.62718,0 5.44077,0.87012 5.44077,2.60969 v 28.092162 c 0,1.73959 -1.81359,2.60925 -5.44077,2.60925 v 2.49832 h 17.93232 v -2.49832 c -3.6642,0 -5.49601,-0.86966 -5.49601,-2.60925 v -28.092162 c 0,-1.73957 1.83181,-2.60969 5.49601,-2.60969 v -2.49831 z m 39.09011,0 -11.15908,26.648792 c -0.14804,0.29609 -0.38858,0.83275 -0.72169,1.61 -0.2961,0.74023 -0.51841,1.25867 -0.66646,1.55476 -0.11104,0.2961 -0.31421,0.75848 -0.61031,1.38769 -0.2961,0.59219 -0.53709,1.01814 -0.72215,1.27725 -0.14805,0.25908 -0.36991,0.61031 -0.66601,1.05447 -0.25908,0.44413 -0.51829,0.77758 -0.77738,0.99967 -0.25908,0.18505 -0.5552,0.40693 -0.88831,0.66599 -0.3331,0.22209 -0.6848,0.38883 -1.05492,0.49985 -0.37012,0.11102 -0.75871,0.18481 -1.16585,0.22185 v 2.38741 h 12.38062 v -2.49832 c -1.25841,0 -2.22055,-0.0925 -2.88677,-0.27755 -0.6292,-0.22207 -0.944,-0.66622 -0.944,-1.33247 0,-0.55517 0.16674,-1.29545 0.49985,-2.22075 0.33311,-0.96232 0.77727,-2.03561 1.33246,-3.22002 0.55518,-1.22138 0.90687,-2.05416 1.05492,-2.49829 h 13.54647 l 1.77662,4.38584 c 0.77725,1.88762 1.16584,3.07208 1.16584,3.55322 0,0.5552 -0.27789,0.94377 -0.83307,1.16586 -0.55518,0.22207 -1.536,0.37013 -2.94246,0.44416 v 2.49832 h 15.4897 v -2.49832 c -1.48049,0 -2.59069,-0.38857 -3.33093,-1.16586 -0.44415,-0.44413 -1.11063,-1.70284 -1.99892,-3.77555 l -13.43509,-30.868002 z m 23.93365,0 v 2.49831 c 3.40512,0 5.10755,0.87012 5.10755,2.60969 v 28.092162 c 0,1.73959 -1.60995,2.60925 -4.83001,2.60925 v 2.49832 h 16.76648 v -2.49832 c -3.22006,0 -4.83001,-0.86966 -4.83001,-2.60925 v -12.713842 h 15.43401 v 12.713842 c 0,1.73959 -1.64685,2.60925 -4.94092,2.60925 v 2.49832 h 16.76647 v -2.49832 c -3.22005,0 -4.83001,-0.86966 -4.83001,-2.60925 v -28.092162 c 0,-1.73957 1.60996,-2.60969 4.83001,-2.60969 v -2.49831 h -16.76647 v 2.49831 c 3.29407,0 4.94092,0.87012 4.94092,2.60969 v 11.71416 h -15.43401 v -11.71416 c 0,-1.73957 1.60995,-2.60969 4.83001,-2.60969 v -2.49831 z m -24.21119,9.82662 5.49647,12.88047 h -10.77062 z"
       id="path855"
       inkscape:connector-curvature="0" />
  </g>
</svg>
